<?xml version="1.0" encoding="utf-8"?>
<!-- Generator: Adobe Illustrator 19.0.0, SVG Export Plug-In . SVG Version: 6.00 Build 0)  -->
<svg version="1.1" id="Layer_1" xmlns="http://www.w3.org/2000/svg" xmlns:xlink="http://www.w3.org/1999/xlink" x="0px" y="0px"
	 viewBox="0 0 60 60" style="enable-background:new 0 0 60 60;" xml:space="preserve">
<style type="text/css">
	.st0{fill:none;stroke:#4D4D4D;stroke-miterlimit:10;}
</style>
<g id="XMLID_1_">
	<circle id="XMLID_589_" class="st0" cx="30" cy="21" r="7"/>
	<path id="XMLID_590_" class="st0" d="M25.9,26.7C16.9,28.3,15.4,37.3,15.4,46"/>
	<path id="XMLID_592_" class="st0" d="M34.1,26.7c9.1,1.5,10.6,10.5,10.6,19.3"/>
</g>
</svg>
